A package for downloading and munging data and information from the North American Breeding Bird Survey • bbsAssistant
…
Filter on species names

View the species lists for your particular dataset by calling:

bbs_list$species_list

## # A tibble: 756 x 12
##    Seq     AOU English_Common_Na~ French_Common_N~ Spanish_Common_~ ORDER Family
##    <chr> <int> <chr>              <chr>            <chr>            <chr> <chr> 
##  1 6      1770 Black-bellied Whi~ "Dendrocygne \x~ Dendrocygna aut~ Anse~ Anati~
##  2 7      1780 Fulvous Whistling~ "Dendrocygne fa~ Dendrocygna bic~ Anse~ Anati~
##  3 8      1760 Emperor Goose      "Oie empereur"   Anser canagicus  Anse~ Anati~
##  4 9      1690 Snow Goose         "Oie des neiges" Anser caerulesc~ Anse~ Anati~
##  5 10     1691 (Blue Goose) Snow~ "Oie des neiges~ Anser caerulesc~ Anse~ Anati~
##  6 11     1700 Ross's Goose       "Oie de Ross"    Anser rossii     Anse~ Anati~
##  7 13     1710 Greater White-fro~ "Oie rieuse"     Anser albifrons  Anse~ Anati~
##  8 18     1730 Brant              "Bernache crava~ Branta bernicla  Anse~ Anati~
##  9 19     1740 (Black Brant) Bra~ "Bernache crava~ Branta bernicla~ Anse~ Anati~
## 10 21     1725 Cackling Goose     "Bernache de Hu~ Branta hutchins~ Anse~ Anati~
## # ... with 746 more rows, and 5 more variables: Genus <chr>, Species <chr>,
## #   Scientific_Name <chr>, AOU4 <chr>, AOU6 <chr>
…
