…
    ## [1] "observations" "routes"       "observers"    "weather"      "species_list"
    ## [6] "citation"     "vehicle_data"

## Filtering by State/Region

Filter the dataset `bbs` using your preferred method. A lookup table is
provided as a package dataset for filtering by country or state using
the BBS codes (see columns ‘CountryNum’ and ‘StateNum’) or ISO alpha
codes and names (see columns ‘iso_3155_2,’‘iso_a2,’‘name_fr,’‘name_es’):

``` r
bbsAssistant::region_codes
```

    ## # A tibble: 96 x 7
    ##    CountryNum StateNum State               iso_3166_2 iso_a2 name_fr    name_es 
    ##         <int>    <int> <chr>               <chr>      <chr>  <chr>      <chr>   
    ##  1        484        1 aguascalientes      MX-AGU     MX     Aguascali~ Aguasca~
    ##  2        484        2 baja california     MX-BCN     MX     Basse-Cal~ Baja Ca~
    ##  3        484        3 baja california sur MX-BCS     MX     Basse-Cal~ Baja Ca~
    ##  4        484        4 campeche            MX-CAM     MX     Campeche   Campeche
    ##  5        484        5 chiapas             MX-CHP     MX     Chiapas    Chiapas 
    ##  6        484        6 chihuahua           MX-CHH     MX     Chihuahua  Chihuah~
    ##  7        484        7 coahuila            MX-COA     MX     Coahuila   Coahuil~
    ##  8        484        8 colima              MX-COL     MX     Colima     Colima  
    ##  9        484        9 mexico city         MX-DIF     MX     Mexico     Ciudad ~
    ## 10        484       10 durango             MX-DUR     MX     Durango    Durango 
    ## # ... with 86 more rows
…
